<?xml version="1.0" encoding="UTF-8" standalone="no"?>
<!-- Created with Inkscape (http://www.inkscape.org/) -->

<svg
   xmlns:dc="http://purl.org/dc/elements/1.1/"
   xmlns:cc="http://creativecommons.org/ns#"
   xmlns:rdf="http://www.w3.org/1999/02/22-rdf-syntax-ns#"
   xmlns:svg="http://www.w3.org/2000/svg"
   xmlns="http://www.w3.org/2000/svg"
   xmlns:sodipodi="http://sodipodi.sourceforge.net/DTD/sodipodi-0.dtd"
   xmlns:inkscape="http://www.inkscape.org/namespaces/inkscape"
   version="1.1"
   id="svg1610"
   width="302.35458"
   height="272.73999">
  <metadata
     id="metadata1616">
    <rdf:RDF>
      <cc:Work
         rdf:about="">
        <dc:format>image/svg+xml</dc:format>
        <dc:type
           rdf:resource="http://purl.org/dc/dcmitype/StillImage" />
      </cc:Work>
    </rdf:RDF>
  </metadata>
  <defs
     id="defs1614">
    <marker
       id="marker-arrow-1.5923999999999998-9"
       orient="auto-start-reverse"
       refY="0"
       refX="0"
       markerHeight="1.6900001"
       markerWidth="0.91100001">
      <g
         transform="scale(1.0733986)"
         id="g1195-3">
        <path
           d="M -1.55415,2.0722 C -1.42464,1.29512 0,0.1295 0.38852,0 0,-0.1295 -1.42464,-1.29512 -1.55415,-2.0722"
           style="fill:none;stroke:#000000;stroke-width:0.60000002;stroke-linecap:round;stroke-linejoin:round;stroke-miterlimit:10;stroke-dasharray:none;stroke-opacity:1"
           inkscape:connector-curvature="0"
           id="path1193-6" />
      </g>
    </marker>
    <marker
       id="marker1625"
       orient="auto-start-reverse"
       refY="0"
       refX="0"
       markerHeight="1.6900001"
       markerWidth="0.91100001">
      <g
         transform="scale(1.0733986)"
         id="g1623">
        <path
           d="M -1.55415,2.0722 C -1.42464,1.29512 0,0.1295 0.38852,0 0,-0.1295 -1.42464,-1.29512 -1.55415,-2.0722"
           style="fill:none;stroke:#000000;stroke-width:0.60000002;stroke-linecap:round;stroke-linejoin:round;stroke-miterlimit:10;stroke-dasharray:none;stroke-opacity:1"
           inkscape:connector-curvature="0"
           id="path1621" />
      </g>
    </marker>
  </defs>
  <sodipodi:namedview
     pagecolor="#ffffff"
     bordercolor="#666666"
     borderopacity="1"
     objecttolerance="10"
     gridtolerance="10"
     guidetolerance="10"
     inkscape:pageopacity="0"
     inkscape:pageshadow="2"
     inkscape:window-width="640"
     inkscape:window-height="480"
     id="namedview1612" />
  <inkscape:clipboard
     style="font-variant-east_asian:normal;opacity:1;vector-effect:none;fill:none;fill-opacity:1;stroke:#000000;stroke-width:1.59239996;stroke-linecap:butt;stroke-linejoin:miter;stroke-miterlimit:4;stroke-dasharray:none;stroke-dashoffset:0;stroke-opacity:1;marker-start:none;marker-end:url(#marker-arrow-1.5923999999999998-9)"
     min="-215.09166,216.82424"
     max="87.262928,489.56421" />
  <path
     inkscape:connector-curvature="0"
     id="path958-0"
     d="M 0,134.96486 H 289.62948"
     style="fill:none;fill-opacity:1;stroke:#000000;stroke-width:1.59239995;stroke-linecap:butt;stroke-linejoin:miter;stroke-dasharray:none;stroke-opacity:1;marker-start:none;marker-end:url(#marker-arrow-1.5923999999999998-9)" />
  <path
     inkscape:connector-curvature="0"
     id="path1017-62"
     d="M 144.81474,272.73998 V 9.2576196"
     style="fill:none;fill-opacity:1;stroke:#000000;stroke-width:1.59239995;stroke-linecap:butt;stroke-linejoin:miter;stroke-dasharray:none;stroke-opacity:1;marker-start:none;marker-end:url(#marker-arrow-1.5923999999999998-9)" />
  <text
     x="285.00461"
     y="120.41886"
     style="font-size:10px;font-family:'FiraMono Nerd Font';-inkscape-font-specification:'FiraMono Nerd Font, Normal';fill:#000000;fill-opacity:1;stroke:none;stroke-width:0.99999994"
     xml:space="preserve"
     id="text1570"><tspan
       style="stroke-width:0.99999994"
       y="120.41886"
       x="285.00461"
       sodipodi:role="line"
       id="tspan1568">$x$</tspan></text>
  <text
     x="154.87193"
     y="8.4799995"
     style="font-size:10px;font-family:'FiraMono Nerd Font';-inkscape-font-specification:'FiraMono Nerd Font, Normal';fill:#000000;fill-opacity:1;stroke:none;stroke-width:0.99999994"
     xml:space="preserve"
     id="text1584"><tspan
       style="stroke-width:0.99999994"
       y="8.4799995"
       x="154.87193"
       sodipodi:role="line"
       id="tspan1582">$y$</tspan></text>
  <text
     x="154.16081"
     y="123.9744"
     style="font-size:10px;font-family:'FiraMono Nerd Font';-inkscape-font-specification:'FiraMono Nerd Font, Normal';fill:#000000;fill-opacity:1;stroke:none;stroke-width:0.99999994"
     xml:space="preserve"
     id="text1598"><tspan
       style="stroke-width:0.99999994"
       y="123.9744"
       x="154.16081"
       sodipodi:role="line"
       id="tspan1596">$O$</tspan></text>
</svg>